{
    "name": "Pagamento",
    "fields": [
        {
            "fieldName": "idTransacaoCartao",
            "fieldType": "String"
        },
        {
            "fieldName": "idTransacaoBoleto",
            "fieldType": "String"
        }
    ],
    "relationships": [
        {
            "relationshipType": "one-to-many",
            "otherEntityName": "etapa",
            "otherEntityRelationshipName": "pagamento",
            "relationshipName": "etapa"
        },
        {
            "relationshipType": "one-to-one",
            "otherEntityName": "boleto",
            "otherEntityRelationshipName": "pagamento",
            "relationshipName": "vendedor",
            "ownerSide": false
        }
    ],
    "changelogDate": "20190402231332",
    "entityTableName": "pagamento",
    "dto": "no",
    "pagination": "no",
    "service": "no",
    "jpaMetamodelFiltering": false,
    "fluentMethods": true,
    "clientRootFolder": "",
    "applications": "*"
}