{
    "name": "Parcelamento",
    "fields": [
        {
            "fieldName": "idParcelamento",
            "fieldType": "String"
        },
        {
            "fieldName": "jurosCliente",
            "fieldType": "BigDecimal"
        },
        {
            "fieldName": "jurosPagBoletos",
            "fieldType": "BigDecimal"
        }
    ],
    "relationships": [
        {
            "relationshipType": "many-to-one",
            "otherEntityName": "plano",
            "otherEntityRelationshipName": "parcelamento",
            "relationshipName": "plano",
            "otherEntityField": "id"
        }
    ],
    "changelogDate": "20190402231335",
    "entityTableName": "parcelamento",
    "dto": "no",
    "pagination": "no",
    "service": "no",
    "jpaMetamodelFiltering": false,
    "fluentMethods": true,
    "clientRootFolder": "",
    "applications": "*"
}