{
    "name": "Plano",
    "fields": [
        {
            "fieldName": "idPlano",
            "fieldType": "String"
        },
        {
            "fieldName": "recebimento",
            "fieldType": "Integer"
        }
    ],
    "relationships": [
        {
            "relationshipType": "one-to-many",
            "otherEntityName": "parcelamento",
            "otherEntityRelationshipName": "plano",
            "relationshipName": "parcelamento"
        }
    ],
    "changelogDate": "20190402231334",
    "entityTableName": "plano",
    "dto": "no",
    "pagination": "no",
    "service": "no",
    "jpaMetamodelFiltering": false,
    "fluentMethods": true,
    "clientRootFolder": "",
    "applications": "*"
}